[
  {
    "host": "mocktarget.apigee.net",
    "isEnabled": true,
    "name": "mockTarget",
    "port": 443,
    "sSLInfo": {
      "ciphers": [],
      "clientAuthEnabled": "true",
      "enabled": "true",
      "ignoreValidationErrors": false,
      "keyAlias": "devapi2.ferguson.com",
      "keyStore": "ref://fei-dev",
      "protocols": []
    }
  }
]